ExperimentName,hostSelectionPolicy,vmAllocationPolicy,OLThreshold,ULThreshold,VMSPolicy,ContainerSpolicy,ContainerPlacement,Percentile,numberOfHosts,numberOfVms,totalSimulationTime,slaOverall,slaAverage,slaTimePerActiveHost,meanTimeBeforeHostShutdown,stDevTimeBeforeHostShutdown,medTimeBeforeHostShutdown,meanTimeBeforeContainerMigration,stDevTimeBeforeContainerMigration,medTimeBeforeContainerMigration,meanActiveVm,stDevActiveVm,medActiveVm,meanActiveHosts,stDevActiveHosts,medActiveHosts,meanNumberOfContainerMigrations,stDevNumberOfContainerMigrations,medNumberOfContainerMigrations,meanDatacenterEnergy,stDevDatacenterEnergy,medDatacenterEnergy,totalContainerMigration,totalVmMigration,totalVmCreated,numberOfOverUtilization,energy,CreatedContainers,CreatedVms
FirstFit_MSThreshold-Under_0.80_0.70_VmMaxC_MaxUsage_MostFull_80.0_1",FirstFit",MSThreshold-Under",0.80",0.70",VmMaxC",MaxUsage",MostFull",80.0",20",32",86400",00",0",0052530063",0",1736114400",0",0139860140",1421",9043478261",2870",6686372656",300",2000000000",3537",7358490566",5179",5911041129",1200",0000000000",3",8501742160",0",5988260406",4",0000000000",2",0000000000",0",3238751378",2",0000000000",0",2996515679",1",7957116410",0",0000000000",67753",9256571556",10267",1479282857",67957",9722741053",86",0",7",22",5",40149",50",25",
FirstFit_MSThreshold-Under_0.80_0.70_VmMaxC_MaxUsage_MostFull_80.0_2",FirstFit",MSThreshold-Under",0.80",0.70",VmMaxC",MaxUsage",MostFull",80.0",20",32",86400",00",0",0052530063",0",1736114400",0",0139860140",1421",9043478261",2870",6686372656",300",2000000000",3537",7358490566",5179",5911041129",1200",0000000000",3",8501742160",0",5988260406",4",0000000000",2",0000000000",0",3238751378",2",0000000000",0",2996515679",1",7957116410",0",0000000000",67762",5153188294",10271",8747938984",67957",9722741053",86",0",7",22",5",40218",50",25",
FirstFit_MSThreshold-Under_0.80_0.70_VmMaxC_MaxUsage_MostFull_80.0_3",FirstFit",MSThreshold-Under",0.80",0.70",VmMaxC",MaxUsage",MostFull",80.0",20",35",86400",00",0",0161502252",0",1054266426",0",1250000000",4089",0370370370",10203",7673204236",300",2000000000",2628",5714285714",3669",3970953045",1200",0000000000",3",2299651568",0",7818355211",3",0000000000",1",8989547038",0",4427729154",2",0000000000",0",4773519164",3",0540599984",0",0000000000",60251",4958381449",14445",9361302177",59822",8647946558",137",0",10",21",4",80338",50",25",
FirstFit_MSThreshold-Under_0.80_0.70_VmMaxC_MaxUsage_MostFull_80.0_4",FirstFit",MSThreshold-Under",0.80",0.70",VmMaxC",MaxUsage",MostFull",80.0",20",32",86400",00",0",0054759005",0",1736114400",0",0139860140",1421",9043478261",2870",6686372656",300",2000000000",3537",7358490566",5179",5911041129",1200",0000000000",3",8501742160",0",5988260406",4",0000000000",2",0000000000",0",3238751378",2",0000000000",0",2996515679",1",7957116410",0",0000000000",66093",2230548698",10315",1776949779",65701",5082668884",86",0",7",22",5",26910",50",25",
FirstFit_MSThreshold-Under_0.80_0.70_VmMaxC_MaxUsage_MostFull_80.0_5",FirstFit",MSThreshold-Under",0.80",0.70",VmMaxC",MaxUsage",MostFull",80.0",20",32",86400",00",0",0052530063",0",1736114400",0",0139860140",1421",9043478261",2870",6686372656",300",2000000000",3537",7358490566",5179",5911041129",1200",0000000000",3",8501742160",0",5988260406",4",0000000000",2",0000000000",0",3238751378",2",0000000000",0",2996515679",1",7957116410",0",0000000000",67777",5803275788",10265",3569571786",67915",8604664109",86",0",7",22",5",40338",50",25",
FirstFit_MSThreshold-Under_0.80_0.70_VmMaxC_MaxUsage_MostFull_80.0_6",FirstFit",MSThreshold-Under",0.80",0.70",VmMaxC",MaxUsage",MostFull",80.0",20",32",86400",00",0",0052530063",0",1736114400",0",0139860140",1421",9043478261",2870",6686372656",300",2000000000",3537",7358490566",5179",5911041129",1200",0000000000",3",8501742160",0",5988260406",4",0000000000",2",0000000000",0",3238751378",2",0000000000",0",2996515679",1",7957116410",0",0000000000",67726",6062070538",10262",4956149471",67845",9688321618",86",0",7",22",5",39932",50",25",
FirstFit_MSThreshold-Under_0.80_0.70_VmMaxC_MaxUsage_MostFull_80.0_7",FirstFit",MSThreshold-Under",0.80",0.70",VmMaxC",MaxUsage",MostFull",80.0",20",35",86400",00",0",0161502252",0",1054266426",0",1250000000",4089",0370370370",10203",7673204236",300",2000000000",2628",5714285714",3669",3970953045",1200",0000000000",3",2299651568",0",7818355211",3",0000000000",1",8989547038",0",4427729154",2",0000000000",0",4773519164",3",0540599984",0",0000000000",60712",9968314345",14388",0263275911",60903",3092629983",137",0",10",21",4",84018",50",25",
FirstFit_MSThreshold-Under_0.80_0.70_VmMaxC_MaxUsage_MostFull_80.0_8",FirstFit",MSThreshold-Under",0.80",0.70",VmMaxC",MaxUsage",MostFull",80.0",20",35",86400",00",0",0161502252",0",1054266426",0",1250000000",4089",0370370370",10203",7673204236",300",2000000000",2628",5714285714",3669",3970953045",1200",0000000000",3",2299651568",0",7818355211",3",0000000000",1",8989547038",0",4427729154",2",0000000000",0",4773519164",3",0540599984",0",0000000000",60242",8231024682",14428",0540849254",60018",6126326125",137",0",10",21",4",80269",50",25",
FirstFit_MSThreshold-Under_0.80_0.70_VmMaxC_MaxUsage_MostFull_80.0_9",FirstFit",MSThreshold-Under",0.80",0.70",VmMaxC",MaxUsage",MostFull",80.0",20",32",86400",00",0",0052530063",0",1736114400",0",0139860140",1421",9043478261",2870",6686372656",300",2000000000",3537",7358490566",5179",5911041129",1200",0000000000",3",8501742160",0",5988260406",4",0000000000",2",0000000000",0",3238751378",2",0000000000",0",2996515679",1",7957116410",0",0000000000",67744",5934571572",10274",4045556639",67957",9722741053",86",0",7",22",5",40075",50",25",
ExperimentName,hostSelectionPolicy,vmAllocationPolicy,OLThreshold,ULThreshold,VMSPolicy,ContainerSpolicy,ContainerPlacement,Percentile,numberOfHosts,numberOfVms,totalSimulationTime,slaOverall,slaAverage,slaTimePerActiveHost,meanTimeBeforeHostShutdown,stDevTimeBeforeHostShutdown,medTimeBeforeHostShutdown,meanTimeBeforeContainerMigration,stDevTimeBeforeContainerMigration,medTimeBeforeContainerMigration,meanActiveVm,stDevActiveVm,medActiveVm,meanActiveHosts,stDevActiveHosts,medActiveHosts,meanNumberOfContainerMigrations,stDevNumberOfContainerMigrations,medNumberOfContainerMigrations,meanDatacenterEnergy,stDevDatacenterEnergy,medDatacenterEnergy,totalContainerMigration,totalVmMigration,totalVmCreated,numberOfOverUtilization,energy,CreatedContainers,CreatedVms
FirstFit_MSThreshold-Under_0.80_0.70_VmMaxC_MaxUsage_MostFull_80.0_1",FirstFit",MSThreshold-Under",0.80",0.70",VmMaxC",MaxUsage",MostFull",80.0",20",32",86400",00",0",0052530063",0",1736114400",0",0139860140",1421",9043478261",2870",6686372656",300",2000000000",3537",7358490566",5179",5911041129",1200",0000000000",3",8501742160",0",5988260406",4",0000000000",2",0000000000",0",3238751378",2",0000000000",0",2996515679",1",7957116410",0",0000000000",67830",8619974951",10248",6469280800",67949",4184498578",86",0",7",22",5",40763",50",25",
FirstFit_MSThreshold-Under_0.80_0.70_VmMaxC_MaxUsage_MostFull_80.0_2",FirstFit",MSThreshold-Under",0.80",0.70",VmMaxC",MaxUsage",MostFull",80.0",20",32",86400",00",0",0054759005",0",1736114400",0",0139860140",1421",9043478261",2870",6686372656",300",2000000000",3537",7358490566",5179",5911041129",1200",0000000000",3",8501742160",0",5988260406",4",0000000000",2",0000000000",0",3238751378",2",0000000000",0",2996515679",1",7957116410",0",0000000000",66131",8561118458",10301",3285709221",65739",9872221924",86",0",7",22",5",27218",50",25",
FirstFit_MSThreshold-Under_0.80_0.70_VmMaxC_MaxUsage_MostFull_80.0_3",FirstFit",MSThreshold-Under",0.80",0.70",VmMaxC",MaxUsage",MostFull",80.0",20",32",86400",00",0",0052530063",0",1736114400",0",0139860140",1421",9043478261",2870",6686372656",300",2000000000",3537",7358490566",5179",5911041129",1200",0000000000",3",8501742160",0",5988260406",4",0000000000",2",0000000000",0",3238751378",2",0000000000",0",2996515679",1",7957116410",0",0000000000",67761",7052612133",10264",8695741644",67915",8604664109",86",0",7",22",5",40211",50",25",
FirstFit_MSThreshold-Under_0.80_0.70_VmMaxC_MaxUsage_MostFull_80.0_4",FirstFit",MSThreshold-Under",0.80",0.70",VmMaxC",MaxUsage",MostFull",80.0",20",32",86400",00",0",0052530063",0",1736114400",0",0139860140",1421",9043478261",2870",6686372656",300",2000000000",3537",7358490566",5179",5911041129",1200",0000000000",3",8501742160",0",5988260406",4",0000000000",2",0000000000",0",3238751378",2",0000000000",0",2996515679",1",7957116410",0",0000000000",67805",7454396560",10252",3286594512",67949",4184498578",86",0",7",22",5",40562",50",25",
FirstFit_MSThreshold-Under_0.80_0.70_VmMaxC_MaxUsage_MostFull_80.0_5",FirstFit",MSThreshold-Under",0.80",0.70",VmMaxC",MaxUsage",MostFull",80.0",20",32",86400",00",0",0054759005",0",1736114400",0",0139860140",1421",9043478261",2870",6686372656",300",2000000000",3537",7358490566",5179",5911041129",1200",0000000000",3",8501742160",0",5988260406",4",0000000000",2",0000000000",0",3238751378",2",0000000000",0",2996515679",1",7957116410",0",0000000000",66117",2259349754",10309",1319394897",65739",9872221924",86",0",7",22",5",27101",50",25",
ExperimentName,hostSelectionPolicy,vmAllocationPolicy,OLThreshold,ULThreshold,VMSPolicy,ContainerSpolicy,ContainerPlacement,Percentile,numberOfHosts,numberOfVms,totalSimulationTime,slaOverall,slaAverage,slaTimePerActiveHost,meanTimeBeforeHostShutdown,stDevTimeBeforeHostShutdown,medTimeBeforeHostShutdown,meanTimeBeforeContainerMigration,stDevTimeBeforeContainerMigration,medTimeBeforeContainerMigration,meanActiveVm,stDevActiveVm,medActiveVm,meanActiveHosts,stDevActiveHosts,medActiveHosts,meanNumberOfContainerMigrations,stDevNumberOfContainerMigrations,medNumberOfContainerMigrations,meanDatacenterEnergy,stDevDatacenterEnergy,medDatacenterEnergy,totalContainerMigration,totalVmMigration,totalVmCreated,numberOfOverUtilization,energy,CreatedContainers,CreatedVms
FirstFit_MSThreshold-Under_0.80_0.70_VmMaxC_MaxUsage_MostFull_80.0_1",FirstFit",MSThreshold-Under",0.80",0.70",VmMaxC",MaxUsage",MostFull",80.0",20",53",86400",00",0",0123546635",0",1690768896",0",0510018215",1806",6043478261",1160",0612470338",2700",0000000000",2300",0000000000",979",7958971133",2700",0000000000",2",9616724739",0",5930199976",3",0000000000",1",9198606272",0",4229301486",2",0000000000",0",5121951220",1",8145751367",0",0000000000",62717",6743932330",12590",7845413375",64975",3860717927",147",0",28",28",4",99999",50",25",
FirstFit_MSThreshold-Under_0.80_0.70_VmMaxC_MaxUsage_MostFull_80.0_2",FirstFit",MSThreshold-Under",0.80",0.70",VmMaxC",MaxUsage",MostFull",80.0",20",53",86400",00",0",0123546635",0",1690768896",0",0510018215",1806",6043478261",1160",0612470338",2700",0000000000",2300",0000000000",979",7958971133",2700",0000000000",2",9616724739",0",5930199976",3",0000000000",1",9198606272",0",4229301486",2",0000000000",0",5121951220",1",8145751367",0",0000000000",62675",4035909641",12580",7708806295",64975",3860717927",147",0",28",28",4",99662",50",25",
FirstFit_MSThreshold-Under_0.80_0.70_VmMaxC_MaxUsage_MostFull_80.0_3",FirstFit",MSThreshold-Under",0.80",0.70",VmMaxC",MaxUsage",MostFull",80.0",20",53",86400",00",0",0123546635",0",1690768896",0",0510018215",1806",6043478261",1160",0612470338",2700",0000000000",2300",0000000000",979",7958971133",2700",0000000000",2",9616724739",0",5930199976",3",0000000000",1",9198606272",0",4229301486",2",0000000000",0",5121951220",1",8145751367",0",0000000000",62700",5285623182",12597",3368764581",64975",3860717927",147",0",28",28",4",99863",50",25",
FirstFit_MSThreshold-Under_0.80_0.70_VmMaxC_MaxUsage_MostFull_80.0_4",FirstFit",MSThreshold-Under",0.80",0.70",VmMaxC",MaxUsage",MostFull",80.0",20",53",86400",00",0",0123546635",0",1690768896",0",0510018215",1806",6043478261",1160",0612470338",2700",0000000000",2300",0000000000",979",7958971133",2700",0000000000",2",9616724739",0",5930199976",3",0000000000",1",9198606272",0",4229301486",2",0000000000",0",5121951220",1",8145751367",0",0000000000",62936",4278080842",12622",2711212792",65254",8437062832",147",0",28",28",5",01743",50",25",
FirstFit_MSThreshold-Under_0.80_0.70_VmMaxC_MaxUsage_MostFull_80.0_5",FirstFit",MSThreshold-Under",0.80",0.70",VmMaxC",MaxUsage",MostFull",80.0",20",53",86400",00",0",0123546635",0",1690768896",0",0510018215",1806",6043478261",1160",0612470338",2700",0000000000",2300",0000000000",979",7958971133",2700",0000000000",2",9616724739",0",5930199976",3",0000000000",1",9198606272",0",4229301486",2",0000000000",0",5121951220",1",8145751367",0",0000000000",62925",9734557387",12627",5667483553",65254",8437062832",147",0",28",28",5",01660",50",25",
FirstFit_MSThreshold-Under_0.80_0.70_VmMaxC_MaxUsage_MostFull_80.0_6",FirstFit",MSThreshold-Under",0.80",0.70",VmMaxC",MaxUsage",MostFull",80.0",20",53",86400",00",0",0123546635",0",1690768896",0",0510018215",1806",6043478261",1160",0612470338",2700",0000000000",2300",0000000000",979",7958971133",2700",0000000000",2",9616724739",0",5930199976",3",0000000000",1",9198606272",0",4229301486",2",0000000000",0",5121951220",1",8145751367",0",0000000000",62328",0704823376",12524",7519218314",64718",9216479047",147",0",28",28",4",96893",50",25",
FirstFit_MSThreshold-Under_0.80_0.70_VmMaxC_MaxUsage_MostFull_80.0_7",FirstFit",MSThreshold-Under",0.80",0.70",VmMaxC",MaxUsage",MostFull",80.0",20",53",86400",00",0",0123546635",0",1690768896",0",0510018215",1806",6043478261",1160",0612470338",2700",0000000000",2300",0000000000",979",7958971133",2700",0000000000",2",9616724739",0",5930199976",3",0000000000",1",9198606272",0",4229301486",2",0000000000",0",5121951220",1",8145751367",0",0000000000",62819",3618286856",12603",6770646947",65234",6399923808",147",0",28",28",5",00810",50",25",
FirstFit_MSThreshold-Under_0.80_0.70_VmMaxC_MaxUsage_MostFull_80.0_8",FirstFit",MSThreshold-Under",0.80",0.70",VmMaxC",MaxUsage",MostFull",80.0",20",53",86400",00",0",0123546635",0",1690768896",0",0510018215",1806",6043478261",1160",0612470338",2700",0000000000",2300",0000000000",979",7958971133",2700",0000000000",2",9616724739",0",5930199976",3",0000000000",1",9198606272",0",4229301486",2",0000000000",0",5121951220",1",8145751367",0",0000000000",62722",5985848336",12602",7205202154",64975",3860717927",147",0",28",28",5",00038",50",25",
FirstFit_MSThreshold-Under_0.80_0.70_VmMaxC_MaxUsage_MostFull_80.0_9",FirstFit",MSThreshold-Under",0.80",0.70",VmMaxC",MaxUsage",MostFull",80.0",20",53",86400",00",0",0123546635",0",1690768896",0",0510018215",1806",6043478261",1160",0612470338",2700",0000000000",2300",0000000000",979",7958971133",2700",0000000000",2",9616724739",0",5930199976",3",0000000000",1",9198606272",0",4229301486",2",0000000000",0",5121951220",1",8145751367",0",0000000000",62641",1119291345",12593",7436353335",64964",7830419327",147",0",28",28",4",99389",50",25",
