{
	"_basepath": "C:\\Users\\Sergi\\Documents\\dades_article_ccgrid2018\\resources",
	"basepath": "C:\\Users\\Sergi\\Documents\\dades_article_sc2018\\resources",
	"experimentNames": ["sandia_10_pop.json",
						"sandia_20_pop.json",
						"sandia_30_pop.json",
						"sandia_40_pop.json",
						"sandia_50_pop.json",
						"sandia_60_pop.json",
						"sandia_70_pop.json",
						"sandia_80_pop.json",
						"sandia_90_pop.json",
						"sandia_100_pop.json",
						"cea-curie_10_pop.json",
						"cea-curie_20_pop.json",
						"cea-curie_30_pop.json",
						"cea-curie_40_pop.json",
						"cea-curie_50_pop.json",
						"cea-curie_60_pop.json",
						"cea-curie_70_pop.json",
						"cea-curie_80_pop.json",
						"cea-curie_90_pop.json",
						"cea-curie_100_pop.json",
					],
	"tunningExperimentName": "tunning.json"
}