300.2,0
600.2,0
900.2,0
1200.2,0
1500.2,0
1800.2,0
2100.2,0
2400.2,0
2700.2,0
3000.2,0
3300.2,0
3600.2,0
3900.2,0
4200.2,0
4500.2,0
4800.2,0
5100.2,0
5400.2,0
5700.2,0
6000.2,0
6300.2,0
6600.2,0
6900.2,0
7200.2,0
7500.2,0
7800.2,0
8100.2,0
8400.2,0
8700.2,0
9000.2,0
9300.2,0
9600.2,0
9900.2,0
10200.2,0
10500.2,0
10800.2,0
11100.2,0
11400.2,0
11700.2,0
12000.2,0
12300.2,0
12600.2,0
12900.2,0
13200.2,0
13500.2,0
13800.2,0
14100.2,0
14400.2,0
14700.2,0
15000.2,0
15300.2,0
15600.2,0
15900.2,0
16200.2,0
16500.2,0
16800.2,0
17100.2,0
17400.2,0
17700.2,0
18000.2,0
18300.2,0
18600.2,0
18900.2,0
19200.2,0
19500.2,0
19800.2,0
20100.2,0
20400.2,0
20700.2,0
21000.2,0
21300.2,0
21600.2,0
21900.2,0
22200.2,0
22500.2,0
22800.2,0
23100.2,0
23400.2,0
23700.2,0
24000.2,0
24300.2,0
24600.2,0
24900.2,0
25200.2,0
25500.2,0
25800.2,0
26100.2,0
26400.2,0
26700.2,0
27000.2,0
27300.2,0
27600.2,0
27900.2,0
28200.2,0
28500.2,0
28800.2,0
29100.2,0
29400.2,0
29700.2,0
30000.2,0
30300.2,0
30600.2,0
30900.2,0
31200.2,0
31500.2,0
31800.2,0
32100.2,0
32400.2,0
32700.2,0
33000.2,0
33300.2,0
33600.2,0
33900.2,0
34200.2,0
34500.2,0
34800.2,0
35100.2,0
35400.2,0
35700.2,0
36000.2,0
36300.2,0
36600.2,0
36900.2,0
37200.2,0
37500.2,0
37800.2,0
38100.2,0
38400.2,0
38700.2,0
39000.2,0
39300.2,0
39600.2,0
39900.2,0
40200.2,0
40500.2,0
40800.2,0
41100.2,0
41400.2,0
41700.2,0
42000.2,0
42300.2,0
42600.2,0
42900.2,0
43200.2,0
43500.2,0
43800.2,0
44100.2,0
44400.2,0
44700.2,0
45000.2,0
45300.2,0
45600.2,0
45900.2,0
46200.2,0
46500.2,0
46800.2,0
47100.2,0
47400.2,0
47700.2,0
48000.2,0
48300.2,0
48600.2,0
48900.2,0
49200.2,0
49500.2,0
49800.2,0
50100.2,0
50400.2,0
50700.2,0
51000.2,0
51300.2,0
51600.2,0
51900.2,0
52200.2,0
52500.2,0
52800.2,0
53100.2,0
53400.2,0
53700.2,0
54000.2,0
54300.2,0
54600.2,0
54900.2,0
55200.2,0
55500.2,0
55800.2,0
56100.2,0
56400.2,0
56700.2,0
57000.2,0
57300.2,0
57600.2,0
57900.2,0
58200.2,0
58500.2,0
58800.2,0
59100.2,0
59400.2,0
59700.2,0
60000.2,0
60300.2,0
60600.2,0
60900.2,0
61200.2,0
61500.2,0
61800.2,0
62100.2,0
62400.2,0
62700.2,0
63000.2,0
63300.2,0
63600.2,0
63900.2,0
64200.2,0
64500.2,0
64800.2,0
65100.2,0
65400.2,0
65700.2,0
66000.2,0
66300.2,0
66600.2,0
66900.2,0
67200.2,0
67500.2,0
67800.2,0
68100.2,0
68400.2,0
68700.2,0
69000.2,0
69300.2,0
69600.2,0
69900.2,0
70200.2,0
70500.2,0
70800.2,0
71100.2,0
71400.2,0
71700.2,0
72000.2,0
72300.2,0
72600.2,0
72900.2,0
73200.2,0
73500.2,0
73800.2,0
74100.2,0
74400.2,0
74700.2,0
75000.2,0
75300.2,0
75600.2,0
75900.2,0
76200.2,0
76500.2,0
76800.2,0
77100.2,0
77400.2,0
77700.2,0
78000.2,0
78300.2,0
78600.2,0
78900.2,0
79200.2,0
79500.2,0
79800.2,0
80100.2,0
80400.2,0
80700.2,0
81000.2,0
81300.2,0
81600.2,0
81900.2,0
82200.2,0
82500.2,0
82800.2,0
83100.2,0
83400.2,0
83700.2,0
84000.2,0
84300.2,0
84600.2,0
84900.2,0
85200.2,0
85500.2,0
85800.2,0
86100.2,0
300.2,0
600.2,0
900.2,0
1200.2,0
1500.2,0
1800.2,0
2100.2,0
2400.2,0
2700.2,0
3000.2,0
3300.2,0
3600.2,0
3900.2,0
4200.2,0
4500.2,0
4800.2,0
5100.2,0
5400.2,0
5700.2,0
6000.2,0
6300.2,0
6600.2,0
6900.2,0
7200.2,0
7500.2,0
7800.2,0
8100.2,0
8400.2,0
8700.2,0
9000.2,0
9300.2,0
9600.2,0
9900.2,0
10200.2,0
10500.2,0
10800.2,0
11100.2,0
11400.2,0
11700.2,0
12000.2,0
12300.2,0
12600.2,0
12900.2,0
13200.2,0
13500.2,0
13800.2,0
14100.2,0
14400.2,0
14700.2,0
15000.2,0
15300.2,0
15600.2,0
15900.2,0
16200.2,0
16500.2,0
16800.2,0
17100.2,0
17400.2,0
17700.2,0
18000.2,0
18300.2,0
18600.2,0
18900.2,0
19200.2,0
19500.2,0
19800.2,0
20100.2,0
20400.2,0
20700.2,0
21000.2,0
21300.2,0
21600.2,0
21900.2,0
22200.2,0
22500.2,0
22800.2,0
23100.2,0
23400.2,0
23700.2,0
24000.2,0
24300.2,0
24600.2,0
24900.2,0
25200.2,0
25500.2,0
25800.2,0
26100.2,0
26400.2,0
26700.2,0
27000.2,0
27300.2,0
27600.2,0
27900.2,0
28200.2,0
28500.2,0
28800.2,0
29100.2,0
29400.2,0
29700.2,0
30000.2,0
30300.2,0
30600.2,0
30900.2,0
31200.2,0
31500.2,0
31800.2,0
32100.2,0
32400.2,0
32700.2,0
33000.2,0
33300.2,0
33600.2,0
33900.2,0
34200.2,0
34500.2,0
34800.2,0
35100.2,0
35400.2,0
35700.2,0
36000.2,0
36300.2,0
36600.2,0
36900.2,0
37200.2,0
37500.2,0
37800.2,0
38100.2,0
38400.2,0
38700.2,0
39000.2,0
39300.2,0
39600.2,0
39900.2,0
40200.2,0
40500.2,0
40800.2,0
41100.2,0
41400.2,0
41700.2,0
42000.2,0
42300.2,0
42600.2,0
42900.2,0
43200.2,0
43500.2,0
43800.2,0
44100.2,0
44400.2,0
44700.2,0
45000.2,0
45300.2,0
45600.2,0
45900.2,0
46200.2,0
46500.2,0
46800.2,0
47100.2,0
47400.2,0
47700.2,0
48000.2,0
48300.2,0
48600.2,0
48900.2,0
49200.2,0
49500.2,0
49800.2,0
50100.2,0
50400.2,0
50700.2,0
51000.2,0
51300.2,0
51600.2,0
51900.2,0
52200.2,0
52500.2,0
52800.2,0
53100.2,0
53400.2,0
53700.2,0
54000.2,0
54300.2,0
54600.2,0
54900.2,0
55200.2,0
55500.2,0
55800.2,0
56100.2,0
56400.2,0
56700.2,0
57000.2,0
57300.2,0
57600.2,0
57900.2,0
58200.2,0
58500.2,0
58800.2,0
59100.2,0
59400.2,0
59700.2,0
60000.2,0
60300.2,0
60600.2,0
60900.2,0
61200.2,0
61500.2,0
61800.2,0
62100.2,0
62400.2,0
62700.2,0
63000.2,0
63300.2,0
63600.2,0
63900.2,0
64200.2,0
64500.2,0
64800.2,0
65100.2,0
65400.2,0
65700.2,0
66000.2,0
66300.2,0
66600.2,0
66900.2,0
67200.2,0
67500.2,0
67800.2,0
68100.2,0
68400.2,0
68700.2,0
69000.2,0
69300.2,0
69600.2,0
69900.2,0
70200.2,0
70500.2,0
70800.2,0
71100.2,0
71400.2,0
71700.2,0
72000.2,0
72300.2,0
72600.2,0
72900.2,0
73200.2,0
73500.2,0
73800.2,0
74100.2,0
74400.2,0
74700.2,0
75000.2,0
75300.2,0
75600.2,0
75900.2,0
76200.2,0
76500.2,0
76800.2,0
77100.2,0
77400.2,0
77700.2,0
78000.2,0
78300.2,0
78600.2,0
78900.2,0
79200.2,0
79500.2,0
79800.2,0
80100.2,0
80400.2,0
80700.2,0
81000.2,0
81300.2,0
81600.2,0
81900.2,0
82200.2,0
82500.2,0
82800.2,0
83100.2,0
83400.2,0
83700.2,0
84000.2,0
84300.2,0
84600.2,0
84900.2,0
85200.2,0
85500.2,0
85800.2,0
86100.2,0
300.2,0
600.2,0
900.2,0
1200.2,0
1500.2,0
1800.2,0
2100.2,0
2400.2,0
2700.2,0
3000.2,0
3300.2,0
3600.2,0
3900.2,0
4200.2,0
4500.2,0
4800.2,0
5100.2,0
5400.2,0
5700.2,0
6000.2,0
6300.2,0
6600.2,0
6900.2,0
7200.2,0
7500.2,0
7800.2,0
8100.2,0
8400.2,0
8700.2,0
9000.2,0
9300.2,0
9600.2,0
9900.2,0
10200.2,0
10500.2,0
10800.2,0
11100.2,0
11400.2,0
11700.2,0
12000.2,0
12300.2,0
12600.2,0
12900.2,0
13200.2,0
13500.2,0
13800.2,0
14100.2,0
14400.2,0
14700.2,0
15000.2,0
15300.2,0
15600.2,0
15900.2,0
16200.2,0
16500.2,0
16800.2,0
17100.2,0
17400.2,0
17700.2,0
18000.2,0
18300.2,0
18600.2,0
18900.2,0
19200.2,0
19500.2,0
19800.2,0
20100.2,0
20400.2,0
20700.2,0
21000.2,0
21300.2,0
21600.2,0
21900.2,0
22200.2,0
22500.2,0
22800.2,0
23100.2,0
23400.2,0
23700.2,0
24000.2,0
24300.2,0
24600.2,0
24900.2,0
25200.2,0
25500.2,0
25800.2,0
26100.2,0
26400.2,0
26700.2,0
27000.2,0
27300.2,0
27600.2,0
27900.2,0
28200.2,0
28500.2,0
28800.2,0
29100.2,0
29400.2,0
29700.2,0
30000.2,0
30300.2,0
30600.2,0
30900.2,0
31200.2,0
31500.2,0
31800.2,0
32100.2,0
32400.2,0
32700.2,0
33000.2,0
33300.2,0
33600.2,0
33900.2,0
34200.2,0
34500.2,0
34800.2,0
35100.2,0
35400.2,0
35700.2,0
36000.2,0
36300.2,0
36600.2,0
36900.2,0
37200.2,0
37500.2,0
37800.2,0
38100.2,0
38400.2,0
38700.2,0
39000.2,0
39300.2,0
39600.2,0
39900.2,0
40200.2,0
40500.2,0
40800.2,0
41100.2,0
41400.2,0
41700.2,0
42000.2,0
42300.2,0
42600.2,0
42900.2,0
43200.2,0
43500.2,0
43800.2,0
44100.2,0
44400.2,0
44700.2,0
45000.2,0
45300.2,0
45600.2,0
45900.2,0
46200.2,0
46500.2,0
46800.2,0
47100.2,0
47400.2,0
47700.2,0
48000.2,0
48300.2,0
48600.2,0
48900.2,0
49200.2,0
49500.2,0
49800.2,0
50100.2,0
50400.2,0
50700.2,0
51000.2,0
51300.2,0
51600.2,0
51900.2,0
52200.2,0
52500.2,0
52800.2,0
53100.2,0
53400.2,0
53700.2,0
54000.2,0
54300.2,0
54600.2,0
54900.2,0
55200.2,0
55500.2,0
55800.2,0
56100.2,0
56400.2,0
56700.2,0
57000.2,0
57300.2,0
57600.2,0
57900.2,0
58200.2,0
58500.2,0
58800.2,0
59100.2,0
59400.2,0
59700.2,0
60000.2,0
60300.2,0
60600.2,0
60900.2,0
61200.2,0
61500.2,0
61800.2,0
62100.2,0
62400.2,0
62700.2,0
63000.2,0
63300.2,0
63600.2,0
63900.2,0
64200.2,0
64500.2,0
64800.2,0
65100.2,0
65400.2,0
65700.2,0
66000.2,0
66300.2,0
66600.2,0
66900.2,0
67200.2,0
67500.2,0
67800.2,0
68100.2,0
68400.2,0
68700.2,0
69000.2,0
69300.2,0
69600.2,0
69900.2,0
70200.2,0
70500.2,0
70800.2,0
71100.2,0
71400.2,0
71700.2,0
72000.2,0
72300.2,0
72600.2,0
72900.2,0
73200.2,0
73500.2,0
73800.2,0
74100.2,0
74400.2,0
74700.2,0
75000.2,0
75300.2,0
75600.2,0
75900.2,0
76200.2,0
76500.2,0
76800.2,0
77100.2,0
77400.2,0
77700.2,0
78000.2,0
78300.2,0
78600.2,0
78900.2,0
79200.2,0
79500.2,0
79800.2,0
80100.2,0
80400.2,0
80700.2,0
81000.2,0
81300.2,0
81600.2,0
81900.2,0
82200.2,0
82500.2,0
82800.2,0
83100.2,0
83400.2,0
83700.2,0
84000.2,0
84300.2,0
84600.2,0
84900.2,0
85200.2,0
85500.2,0
85800.2,0
86100.2,0
